info face="Minecraft" size=16 bold=0 italic=0 charset="" unicode=0 stretchH=100 smooth=1 aa=1 padding=1,1,1,1 spacing=-2,-2
common lineHeight=18 base=13 scaleW=512 scaleH=512 pages=1 packed=0
page id=0 file="font16.png"
chars count=96
char id=10      x=0    y=0    width=0    height=0    xoffset=0    yoffset=0    xadvance=0    page=0    chnl=0 
char id=32      x=0    y=0    width=0    height=0    xoffset=-1   yoffset=11   xadvance=5    page=0    chnl=0 
char id=33      x=52   y=18   width=4    height=14   xoffset=-1   yoffset=-1   xadvance=3    page=0    chnl=0 
char id=34      x=335  y=18   width=10   height=8    xoffset=-1   yoffset=-1   xadvance=9    page=0    chnl=0 
char id=35      x=116  y=18   width=12   height=14   xoffset=-1   yoffset=-1   xadvance=11   page=0    chnl=0 
char id=36      x=46   y=0    width=10   height=16   xoffset=-1   yoffset=-1   xadvance=9    page=0    chnl=0 
char id=37      x=102  y=18   width=14   height=14   xoffset=0    yoffset=-1   xadvance=14   page=0    chnl=0 
char id=38      x=128  y=18   width=12   height=14   xoffset=-1   yoffset=-1   xadvance=11   page=0    chnl=0 
char id=39      x=373  y=18   width=4    height=6    xoffset=-1   yoffset=-1   xadvance=3    page=0    chnl=0 
char id=40      x=66   y=18   width=8    height=14   xoffset=-1   yoffset=-1   xadvance=7    page=0    chnl=0 
char id=41      x=74   y=18   width=8    height=14   xoffset=-1   yoffset=-1   xadvance=7    page=0    chnl=0 
char id=42      x=365  y=18   width=8    height=8    xoffset=-1   yoffset=-1   xadvance=7    page=0    chnl=0 
char id=43      x=313  y=18   width=10   height=10   xoffset=0    yoffset=1    xadvance=10   page=0    chnl=0 
char id=44      x=377  y=18   width=4    height=6    xoffset=-1   yoffset=9    xadvance=3    page=0    chnl=0 
char id=45      x=390  y=18   width=7    height=4    xoffset=-1   yoffset=6    xadvance=6    page=0    chnl=0 
char id=46      x=386  y=18   width=4    height=4    xoffset=-1   yoffset=9    xadvance=3    page=0    chnl=0 
char id=47      x=82   y=18   width=10   height=14   xoffset=-1   yoffset=-1   xadvance=9    page=0    chnl=0 
char id=48      x=42   y=18   width=10   height=14   xoffset=-1   yoffset=-1   xadvance=9    page=0    chnl=0 
char id=49      x=461  y=0    width=8    height=14   xoffset=-1   yoffset=-1   xadvance=7    page=0    chnl=0 
char id=50      x=469  y=0    width=10   height=14   xoffset=-1   yoffset=-1   xadvance=9    page=0    chnl=0 
char id=51      x=479  y=0    width=10   height=14   xoffset=-1   yoffset=-1   xadvance=9    page=0    chnl=0 
char id=52      x=489  y=0    width=11   height=14   xoffset=-1   yoffset=-1   xadvance=10   page=0    chnl=0 
char id=53      x=0    y=18   width=12   height=14   xoffset=-1   yoffset=-1   xadvance=11   page=0    chnl=0 
char id=54      x=500  y=0    width=11   height=14   xoffset=-1   yoffset=-1   xadvance=10   page=0    chnl=0 
char id=55      x=12   y=18   width=10   height=14   xoffset=-1   yoffset=-1   xadvance=9    page=0    chnl=0 
char id=56      x=22   y=18   width=10   height=14   xoffset=-1   yoffset=-1   xadvance=9    page=0    chnl=0 
char id=57      x=32   y=18   width=10   height=14   xoffset=-1   yoffset=-1   xadvance=9    page=0    chnl=0 
char id=58      x=280  y=18   width=4    height=11   xoffset=0    yoffset=2    xadvance=4    page=0    chnl=0 
char id=59      x=157  y=18   width=4    height=13   xoffset=0    yoffset=2    xadvance=4    page=0    chnl=0 
char id=60      x=297  y=18   width=8    height=10   xoffset=-1   yoffset=1    xadvance=7    page=0    chnl=0 
char id=61      x=355  y=18   width=10   height=8    xoffset=-1   yoffset=2    xadvance=9    page=0    chnl=0 
char id=62      x=305  y=18   width=8    height=10   xoffset=-1   yoffset=1    xadvance=7    page=0    chnl=0 
char id=63      x=56   y=18   width=10   height=14   xoffset=-1   yoffset=-1   xadvance=9    page=0    chnl=0 
char id=64      x=30   y=0    width=16   height=17   xoffset=-1   yoffset=-1   xadvance=15   page=0    chnl=0 
char id=65      x=66   y=0    width=11   height=14   xoffset=-1   yoffset=-1   xadvance=10   page=0    chnl=0 
char id=66      x=77   y=0    width=12   height=14   xoffset=-1   yoffset=-1   xadvance=11   page=0    chnl=0 
char id=67      x=89   y=0    width=13   height=14   xoffset=-1   yoffset=-1   xadvance=12   page=0    chnl=0 
char id=68      x=102  y=0    width=12   height=14   xoffset=-1   yoffset=-1   xadvance=11   page=0    chnl=0 
char id=69      x=114  y=0    width=12   height=14   xoffset=-1   yoffset=-1   xadvance=11   page=0    chnl=0 
char id=70      x=126  y=0    width=11   height=14   xoffset=-1   yoffset=-1   xadvance=10   page=0    chnl=0 
char id=71      x=137  y=0    width=13   height=14   xoffset=-1   yoffset=-1   xadvance=12   page=0    chnl=0 
char id=72      x=150  y=0    width=12   height=14   xoffset=-1   yoffset=-1   xadvance=11   page=0    chnl=0 
char id=73      x=162  y=0    width=6    height=14   xoffset=0    yoffset=-1   xadvance=6    page=0    chnl=0 
char id=74      x=168  y=0    width=9    height=14   xoffset=-1   yoffset=-1   xadvance=8    page=0    chnl=0 
char id=75      x=177  y=0    width=11   height=14   xoffset=-1   yoffset=-1   xadvance=10   page=0    chnl=0 
char id=76      x=188  y=0    width=11   height=14   xoffset=-1   yoffset=-1   xadvance=10   page=0    chnl=0 
char id=77      x=199  y=0    width=12   height=14   xoffset=-1   yoffset=-1   xadvance=11   page=0    chnl=0 
char id=78      x=211  y=0    width=12   height=14   xoffset=-1   yoffset=-1   xadvance=11   page=0    chnl=0 
char id=79      x=223  y=0    width=14   height=14   xoffset=-1   yoffset=-1   xadvance=13   page=0    chnl=0 
char id=80      x=237  y=0    width=12   height=14   xoffset=-1   yoffset=-1   xadvance=11   page=0    chnl=0 
char id=81      x=249  y=0    width=14   height=14   xoffset=-1   yoffset=-1   xadvance=13   page=0    chnl=0 
char id=82      x=263  y=0    width=14   height=14   xoffset=-1   yoffset=-1   xadvance=13   page=0    chnl=0 
char id=83      x=277  y=0    width=11   height=14   xoffset=-1   yoffset=-1   xadvance=10   page=0    chnl=0 
char id=84      x=288  y=0    width=12   height=14   xoffset=-1   yoffset=-1   xadvance=11   page=0    chnl=0 
char id=85      x=300  y=0    width=11   height=14   xoffset=0    yoffset=-1   xadvance=11   page=0    chnl=0 
char id=86      x=311  y=0    width=12   height=14   xoffset=-1   yoffset=-1   xadvance=11   page=0    chnl=0 
char id=87      x=323  y=0    width=12   height=14   xoffset=-1   yoffset=-1   xadvance=11   page=0    chnl=0 
char id=88      x=335  y=0    width=12   height=14   xoffset=-1   yoffset=-1   xadvance=11   page=0    chnl=0 
char id=89      x=347  y=0    width=12   height=14   xoffset=-1   yoffset=-1   xadvance=11   page=0    chnl=0 
char id=90      x=359  y=0    width=12   height=14   xoffset=-1   yoffset=-1   xadvance=11   page=0    chnl=0 
char id=91      x=18   y=0    width=6    height=17   xoffset=-1   yoffset=-1   xadvance=5    page=0    chnl=0 
char id=92      x=92   y=18   width=10   height=14   xoffset=-1   yoffset=-1   xadvance=9    page=0    chnl=0 
char id=93      x=24   y=0    width=6    height=17   xoffset=-1   yoffset=-1   xadvance=5    page=0    chnl=0 
char id=94      x=345  y=18   width=10   height=8    xoffset=-1   yoffset=-1   xadvance=9    page=0    chnl=0 
char id=95      x=409  y=18   width=11   height=3    xoffset=-1   yoffset=10   xadvance=10   page=0    chnl=0 
char id=96      x=381  y=18   width=5    height=5    xoffset=0    yoffset=-1   xadvance=5    page=0    chnl=0 
char id=97      x=192  y=18   width=11   height=11   xoffset=-1   yoffset=2    xadvance=10   page=0    chnl=0 
char id=98      x=371  y=0    width=12   height=14   xoffset=-1   yoffset=-1   xadvance=11   page=0    chnl=0 
char id=99      x=203  y=18   width=11   height=11   xoffset=-1   yoffset=2    xadvance=10   page=0    chnl=0 
char id=100     x=383  y=0    width=10   height=14   xoffset=-1   yoffset=-1   xadvance=9    page=0    chnl=0 
char id=101     x=214  y=18   width=10   height=11   xoffset=-1   yoffset=2    xadvance=9    page=0    chnl=0 
char id=102     x=393  y=0    width=10   height=14   xoffset=-1   yoffset=-1   xadvance=9    page=0    chnl=0 
char id=103     x=56   y=0    width=10   height=15   xoffset=-1   yoffset=2    xadvance=9    page=0    chnl=0 
char id=104     x=403  y=0    width=10   height=14   xoffset=-1   yoffset=-1   xadvance=9    page=0    chnl=0 
char id=105     x=413  y=0    width=4    height=14   xoffset=-1   yoffset=-1   xadvance=3    page=0    chnl=0 
char id=106     x=417  y=0    width=9    height=14   xoffset=-1   yoffset=1    xadvance=8    page=0    chnl=0 
char id=107     x=426  y=0    width=10   height=14   xoffset=-1   yoffset=-1   xadvance=9    page=0    chnl=0 
char id=108     x=436  y=0    width=4    height=14   xoffset=-1   yoffset=-1   xadvance=3    page=0    chnl=0 
char id=109     x=224  y=18   width=16   height=11   xoffset=-1   yoffset=2    xadvance=15   page=0    chnl=0 
char id=110     x=240  y=18   width=11   height=11   xoffset=-1   yoffset=2    xadvance=10   page=0    chnl=0 
char id=111     x=251  y=18   width=10   height=11   xoffset=-1   yoffset=2    xadvance=9    page=0    chnl=0 
char id=112     x=440  y=0    width=11   height=14   xoffset=-1   yoffset=2    xadvance=10   page=0    chnl=0 
char id=113     x=451  y=0    width=10   height=14   xoffset=-1   yoffset=2    xadvance=9    page=0    chnl=0 
char id=114     x=261  y=18   width=9    height=11   xoffset=-1   yoffset=2    xadvance=8    page=0    chnl=0 
char id=115     x=161  y=18   width=9    height=12   xoffset=-1   yoffset=1    xadvance=8    page=0    chnl=0 
char id=116     x=140  y=18   width=7    height=13   xoffset=-1   yoffset=0    xadvance=6    page=0    chnl=0 
char id=117     x=270  y=18   width=10   height=11   xoffset=-1   yoffset=2    xadvance=9    page=0    chnl=0 
char id=118     x=323  y=18   width=12   height=9    xoffset=-1   yoffset=4    xadvance=11   page=0    chnl=0 
char id=119     x=284  y=18   width=13   height=10   xoffset=-1   yoffset=3    xadvance=12   page=0    chnl=0 
char id=120     x=170  y=18   width=12   height=12   xoffset=-1   yoffset=1    xadvance=11   page=0    chnl=0 
char id=121     x=147  y=18   width=10   height=13   xoffset=-1   yoffset=2    xadvance=9    page=0    chnl=0 
char id=122     x=182  y=18   width=10   height=12   xoffset=-1   yoffset=1    xadvance=9    page=0    chnl=0 
char id=123     x=0    y=0    width=7    height=18   xoffset=-1   yoffset=-1   xadvance=6    page=0    chnl=0 
char id=124     x=14   y=0    width=4    height=18   xoffset=-1   yoffset=-1   xadvance=3    page=0    chnl=0 
char id=125     x=7    y=0    width=7    height=18   xoffset=-1   yoffset=-1   xadvance=6    page=0    chnl=0 
char id=126     x=397  y=18   width=12   height=4    xoffset=-1   yoffset=4    xadvance=11   page=0    chnl=0 
kernings count=0
